EESchema Schematic File Version 4
EELAYER 30 0
EELAYER END
$Descr A4 11693 8268
encoding utf-8
Sheet 1 1
Title ""
Date ""
Rev ""
Comp ""
Comment1 ""
Comment2 ""
Comment3 ""
Comment4 ""
$EndDescr
$Comp
L IAM-81008:IAM-81008 U1
U 1 1 5F0783BC
P 6800 1600
F 0 "U1" H 6800 2165 50  0000 C CNN
F 1 "IAM-81008" H 6800 2074 50  0000 C CNN
F 2 "Package_SO:SO-8_3.9x4.9mm_P1.27mm" H 6800 1600 50  0001 C CNN
F 3 "" H 6800 1600 50  0001 C CNN
	1    6800 1600
	1    0    0    -1  
$EndComp
$Comp
L Device:C C1
U 1 1 5F078F30
P 2250 3250
F 0 "C1" V 2502 3250 50  0000 C CNN
F 1 "C" V 2411 3250 50  0000 C CNN
F 2 "Capacitor_SMD:C_0603_1608Metric_Pad1.05x0.95mm_HandSolder" H 2288 3100 50  0001 C CNN
F 3 "~" H 2250 3250 50  0001 C CNN
	1    2250 3250
	0    1    -1   0   
$EndComp
$Comp
L Device:C C10
U 1 1 5F0791C1
P 7600 1300
F 0 "C10" V 7348 1300 50  0000 C CNN
F 1 "C" V 7439 1300 50  0000 C CNN
F 2 "Capacitor_SMD:C_0603_1608Metric_Pad1.05x0.95mm_HandSolder" H 7638 1150 50  0001 C CNN
F 3 "~" H 7600 1300 50  0001 C CNN
	1    7600 1300
	0    1    1    0   
$EndComp
$Comp
L Device:C C3
U 1 1 5F0794AA
P 2850 4150
F 0 "C3" V 3102 4150 50  0000 C CNN
F 1 "C" V 3011 4150 50  0000 C CNN
F 2 "Capacitor_SMD:C_0603_1608Metric_Pad1.05x0.95mm_HandSolder" H 2888 4000 50  0001 C CNN
F 3 "~" H 2850 4150 50  0001 C CNN
	1    2850 4150
	0    1    -1   0   
$EndComp
$Comp
L Device:C C11
U 1 1 5F079819
P 7850 1600
F 0 "C11" V 7598 1600 50  0000 C CNN
F 1 "C" V 7689 1600 50  0000 C CNN
F 2 "Capacitor_SMD:C_0603_1608Metric_Pad1.05x0.95mm_HandSolder" H 7888 1450 50  0001 C CNN
F 3 "~" H 7850 1600 50  0001 C CNN
	1    7850 1600
	0    1    1    0   
$EndComp
Wire Wire Line
	7250 1600 7700 1600
Wire Wire Line
	7450 1300 7250 1300
Wire Wire Line
	6350 1300 5900 1300
Wire Wire Line
	6350 1750 5900 1750
$Comp
L power:GND #PWR0101
U 1 1 5F07C23B
P 6350 1450
F 0 "#PWR0101" H 6350 1200 50  0001 C CNN
F 1 "GND" V 6355 1322 50  0000 R CNN
F 2 "" H 6350 1450 50  0001 C CNN
F 3 "" H 6350 1450 50  0001 C CNN
	1    6350 1450
	0    1    1    0   
$EndComp
$Comp
L power:GND #PWR0102
U 1 1 5F07C4AC
P 6350 1600
F 0 "#PWR0102" H 6350 1350 50  0001 C CNN
F 1 "GND" V 6355 1472 50  0000 R CNN
F 2 "" H 6350 1600 50  0001 C CNN
F 3 "" H 6350 1600 50  0001 C CNN
	1    6350 1600
	0    1    1    0   
$EndComp
$Comp
L power:GND #PWR0103
U 1 1 5F07C615
P 7750 1300
F 0 "#PWR0103" H 7750 1050 50  0001 C CNN
F 1 "GND" V 7755 1172 50  0000 R CNN
F 2 "" H 7750 1300 50  0001 C CNN
F 3 "" H 7750 1300 50  0001 C CNN
	1    7750 1300
	0    -1   -1   0   
$EndComp
$Comp
L sma:SMA J1
U 1 1 5F07DDC9
P 1650 3550
F 0 "J1" H 1600 4203 60  0000 C CNN
F 1 "SMA" H 1600 4097 60  0000 C CNN
F 2 "lib_kicad:SMA" H 1600 3999 50  0000 C CNN
F 3 "" H 1650 3550 50  0001 C CNN
	1    1650 3550
	-1   0    0    -1  
$EndComp
Wire Wire Line
	1600 3450 1650 3450
Wire Wire Line
	1650 3450 1700 3450
Connection ~ 1650 3450
Wire Wire Line
	1700 3450 1750 3450
Connection ~ 1700 3450
$Comp
L power:GND #PWR0104
U 1 1 5F080380
P 1650 3450
F 0 "#PWR0104" H 1650 3200 50  0001 C CNN
F 1 "GND" H 1655 3277 50  0000 C CNN
F 2 "" H 1650 3450 50  0001 C CNN
F 3 "" H 1650 3450 50  0001 C CNN
	1    1650 3450
	1    0    0    -1  
$EndComp
$Comp
L Device:R R2
U 1 1 5F0808CE
P 2300 4150
F 0 "R2" V 2093 4150 50  0000 C CNN
F 1 "R" V 2184 4150 50  0000 C CNN
F 2 "Resistor_SMD:R_0603_1608Metric_Pad1.05x0.95mm_HandSolder" V 2230 4150 50  0001 C CNN
F 3 "~" H 2300 4150 50  0001 C CNN
	1    2300 4150
	0    -1   1    0   
$EndComp
$Comp
L Device:R R3
U 1 1 5F081E55
P 2550 4300
F 0 "R3" H 2480 4254 50  0000 R CNN
F 1 "R" H 2480 4345 50  0000 R CNN
F 2 "Resistor_SMD:R_0603_1608Metric_Pad1.05x0.95mm_HandSolder" V 2480 4300 50  0001 C CNN
F 3 "~" H 2550 4300 50  0001 C CNN
	1    2550 4300
	1    0    0    1   
$EndComp
$Comp
L Device:R R1
U 1 1 5F082296
P 2050 4300
F 0 "R1" H 1980 4254 50  0000 R CNN
F 1 "R" H 1980 4345 50  0000 R CNN
F 2 "Resistor_SMD:R_0603_1608Metric_Pad1.05x0.95mm_HandSolder" V 1980 4300 50  0001 C CNN
F 3 "~" H 2050 4300 50  0001 C CNN
	1    2050 4300
	1    0    0    1   
$EndComp
$Comp
L power:GND #PWR0105
U 1 1 5F082A4B
P 2550 4450
F 0 "#PWR0105" H 2550 4200 50  0001 C CNN
F 1 "GND" V 2555 4322 50  0000 R CNN
F 2 "" H 2550 4450 50  0001 C CNN
F 3 "" H 2550 4450 50  0001 C CNN
	1    2550 4450
	-1   0    0    -1  
$EndComp
$Comp
L power:GND #PWR0106
U 1 1 5F08345A
P 2050 4450
F 0 "#PWR0106" H 2050 4200 50  0001 C CNN
F 1 "GND" V 2055 4322 50  0000 R CNN
F 2 "" H 2050 4450 50  0001 C CNN
F 3 "" H 2050 4450 50  0001 C CNN
	1    2050 4450
	-1   0    0    -1  
$EndComp
$Comp
L sma:SMA J2
U 1 1 5F0838DF
P 1650 4450
F 0 "J2" H 1744 4778 60  0000 L CNN
F 1 "SMA" H 1744 4672 60  0000 L CNN
F 2 "lib_kicad:SMA" H 1800 4450 50  0000 L CNN
F 3 "" H 1650 4450 50  0001 C CNN
	1    1650 4450
	-1   0    0    -1  
$EndComp
$Comp
L power:GND #PWR0107
U 1 1 5F084C57
P 1700 4350
F 0 "#PWR0107" H 1700 4100 50  0001 C CNN
F 1 "GND" H 1705 4177 50  0000 C CNN
F 2 "" H 1700 4350 50  0001 C CNN
F 3 "" H 1700 4350 50  0001 C CNN
	1    1700 4350
	-1   0    0    -1  
$EndComp
$Comp
L power:GND #PWR0108
U 1 1 5F085AAB
P 8000 1600
F 0 "#PWR0108" H 8000 1350 50  0001 C CNN
F 1 "GND" V 8005 1472 50  0000 R CNN
F 2 "" H 8000 1600 50  0001 C CNN
F 3 "" H 8000 1600 50  0001 C CNN
	1    8000 1600
	0    -1   -1   0   
$EndComp
Wire Wire Line
	8900 1450 8900 900 
$Comp
L Device:C C15
U 1 1 5F0867E1
P 8800 1600
F 0 "C15" H 8685 1554 50  0000 R CNN
F 1 "C" H 8685 1645 50  0000 R CNN
F 2 "Capacitor_SMD:C_0603_1608Metric_Pad1.05x0.95mm_HandSolder" H 8838 1450 50  0001 C CNN
F 3 "~" H 8800 1600 50  0001 C CNN
	1    8800 1600
	-1   0    0    1   
$EndComp
Connection ~ 8800 1450
Wire Wire Line
	8800 1450 8900 1450
$Comp
L power:+5V #PWR0109
U 1 1 5F088113
P 8900 900
F 0 "#PWR0109" H 8900 750 50  0001 C CNN
F 1 "+5V" H 8915 1073 50  0000 C CNN
F 2 "" H 8900 900 50  0001 C CNN
F 3 "" H 8900 900 50  0001 C CNN
	1    8900 900 
	1    0    0    -1  
$EndComp
$Comp
L power:GND #PWR0110
U 1 1 5F088379
P 8800 1750
F 0 "#PWR0110" H 8800 1500 50  0001 C CNN
F 1 "GND" H 8805 1577 50  0000 C CNN
F 2 "" H 8800 1750 50  0001 C CNN
F 3 "" H 8800 1750 50  0001 C CNN
	1    8800 1750
	1    0    0    -1  
$EndComp
$Comp
L Device:C C14
U 1 1 5F08922C
P 8500 1600
F 0 "C14" H 8385 1554 50  0000 R CNN
F 1 "C" H 8385 1645 50  0000 R CNN
F 2 "Capacitor_SMD:C_0603_1608Metric_Pad1.05x0.95mm_HandSolder" H 8538 1450 50  0001 C CNN
F 3 "~" H 8500 1600 50  0001 C CNN
	1    8500 1600
	-1   0    0    1   
$EndComp
Connection ~ 8500 1450
$Comp
L power:GND #PWR0111
U 1 1 5F089238
P 8500 1750
F 0 "#PWR0111" H 8500 1500 50  0001 C CNN
F 1 "GND" H 8505 1577 50  0000 C CNN
F 2 "" H 8500 1750 50  0001 C CNN
F 3 "" H 8500 1750 50  0001 C CNN
	1    8500 1750
	1    0    0    -1  
$EndComp
Wire Wire Line
	8500 1450 8800 1450
Wire Wire Line
	7250 1450 8500 1450
Wire Wire Line
	2450 1700 2450 1150
$Comp
L Device:C C2
U 1 1 5F09345C
P 2350 1850
F 0 "C2" H 2235 1804 50  0000 R CNN
F 1 "C" H 2235 1895 50  0000 R CNN
F 2 "Capacitor_SMD:C_0603_1608Metric_Pad1.05x0.95mm_HandSolder" H 2388 1700 50  0001 C CNN
F 3 "~" H 2350 1850 50  0001 C CNN
	1    2350 1850
	-1   0    0    1   
$EndComp
Connection ~ 2350 1700
Wire Wire Line
	2350 1700 2450 1700
$Comp
L power:+5V #PWR0112
U 1 1 5F093468
P 2450 1150
F 0 "#PWR0112" H 2450 1000 50  0001 C CNN
F 1 "+5V" H 2465 1323 50  0000 C CNN
F 2 "" H 2450 1150 50  0001 C CNN
F 3 "" H 2450 1150 50  0001 C CNN
	1    2450 1150
	1    0    0    -1  
$EndComp
$Comp
L power:GND #PWR0113
U 1 1 5F093472
P 2350 2000
F 0 "#PWR0113" H 2350 1750 50  0001 C CNN
F 1 "GND" H 2355 1827 50  0000 C CNN
F 2 "" H 2350 2000 50  0001 C CNN
F 3 "" H 2350 2000 50  0001 C CNN
	1    2350 2000
	1    0    0    -1  
$EndComp
Wire Wire Line
	2050 1700 2350 1700
$Comp
L Connector_Generic:Conn_01x02 J3
U 1 1 5F098EB4
P 1850 1700
F 0 "J3" H 1768 1917 50  0000 C CNN
F 1 "Conn_01x02" H 1768 1826 50  0000 C CNN
F 2 "Connector_PinSocket_2.54mm:PinSocket_1x02_P2.54mm_Vertical" H 1850 1700 50  0001 C CNN
F 3 "~" H 1850 1700 50  0001 C CNN
	1    1850 1700
	-1   0    0    -1  
$EndComp
$Comp
L power:GND #PWR0114
U 1 1 5F09926C
P 2050 1800
F 0 "#PWR0114" H 2050 1550 50  0001 C CNN
F 1 "GND" H 2055 1627 50  0000 C CNN
F 2 "" H 2050 1800 50  0001 C CNN
F 3 "" H 2050 1800 50  0001 C CNN
	1    2050 1800
	1    0    0    -1  
$EndComp
$Comp
L ad8307:AD8307 U2
U 1 1 5F09A774
P 7100 5050
F 0 "U2" H 7694 5103 60  0000 L CNN
F 1 "AD8307" H 7694 4997 60  0000 L CNN
F 2 "Package_SO:SOIC-8_3.9x4.9mm_P1.27mm" H 7100 5050 60  0001 C CNN
F 3 "" H 7100 5050 60  0000 C CNN
	1    7100 5050
	1    0    0    -1  
$EndComp
Text Label 5900 1300 2    50   ~ 0
FI_mix
Wire Wire Line
	1750 4350 1700 4350
Wire Wire Line
	1700 4350 1650 4350
Connection ~ 1700 4350
Wire Wire Line
	1600 4350 1650 4350
Connection ~ 1650 4350
Wire Wire Line
	2700 4150 2550 4150
Connection ~ 2550 4150
Wire Wire Line
	2550 4150 2450 4150
Wire Wire Line
	2150 4150 2050 4150
Connection ~ 2050 4150
Wire Wire Line
	2050 4150 1800 4150
Text Label 3000 4150 0    50   ~ 0
OL_MIX
Text Label 5900 1750 2    50   ~ 0
RF_in
Text Label 2550 3250 0    50   ~ 0
RF_in
Wire Wire Line
	2400 3250 2550 3250
Wire Wire Line
	2100 3250 1800 3250
Text Label 7450 1750 0    50   ~ 0
OL_MIX
Wire Wire Line
	7250 1750 7450 1750
$Comp
L Device:C C4
U 1 1 5F0D6FC0
P 6200 3000
F 0 "C4" V 5948 3000 50  0000 C CNN
F 1 "C" V 6039 3000 50  0000 C CNN
F 2 "Capacitor_SMD:C_0603_1608Metric_Pad1.05x0.95mm_HandSolder" H 6238 2850 50  0001 C CNN
F 3 "~" H 6200 3000 50  0001 C CNN
	1    6200 3000
	0    1    1    0   
$EndComp
Text Label 5950 3000 2    50   ~ 0
FI_mix
Text Label 5750 4900 2    50   ~ 0
IF_filtre
$Comp
L Device:C C5
U 1 1 5F0DCD8B
P 6550 4900
F 0 "C5" V 6298 4900 50  0000 C CNN
F 1 "C" V 6389 4900 50  0000 C CNN
F 2 "Capacitor_SMD:C_0603_1608Metric_Pad1.05x0.95mm_HandSolder" H 6588 4750 50  0001 C CNN
F 3 "~" H 6550 4900 50  0001 C CNN
	1    6550 4900
	0    1    1    0   
$EndComp
Wire Wire Line
	6700 4900 6750 4900
$Comp
L Device:C C6
U 1 1 5F0DDAE4
P 6550 5400
F 0 "C6" H 6435 5354 50  0000 R CNN
F 1 "C" H 6435 5445 50  0000 R CNN
F 2 "Capacitor_SMD:C_0603_1608Metric_Pad1.05x0.95mm_HandSolder" H 6588 5250 50  0001 C CNN
F 3 "~" H 6550 5400 50  0001 C CNN
	1    6550 5400
	-1   0    0    1   
$EndComp
Wire Wire Line
	6750 5200 6550 5200
Wire Wire Line
	6550 5200 6550 5250
$Comp
L power:GND #PWR0115
U 1 1 5F0DE7B7
P 6550 5550
F 0 "#PWR0115" H 6550 5300 50  0001 C CNN
F 1 "GND" H 6555 5377 50  0000 C CNN
F 2 "" H 6550 5550 50  0001 C CNN
F 3 "" H 6550 5550 50  0001 C CNN
	1    6550 5550
	1    0    0    -1  
$EndComp
$Comp
L power:GND #PWR0116
U 1 1 5F0DECDB
P 7100 5450
F 0 "#PWR0116" H 7100 5200 50  0001 C CNN
F 1 "GND" H 7105 5277 50  0000 C CNN
F 2 "" H 7100 5450 50  0001 C CNN
F 3 "" H 7100 5450 50  0001 C CNN
	1    7100 5450
	1    0    0    -1  
$EndComp
$Comp
L Device:C C8
U 1 1 5F0DF9F4
P 7250 4450
F 0 "C8" V 6998 4450 50  0000 C CNN
F 1 "C" V 7089 4450 50  0000 C CNN
F 2 "Capacitor_SMD:C_0603_1608Metric_Pad1.05x0.95mm_HandSolder" H 7288 4300 50  0001 C CNN
F 3 "~" H 7250 4450 50  0001 C CNN
	1    7250 4450
	0    -1   1    0   
$EndComp
$Comp
L power:+5V #PWR0117
U 1 1 5F0DFE6D
P 6250 4300
F 0 "#PWR0117" H 6250 4150 50  0001 C CNN
F 1 "+5V" H 6265 4473 50  0000 C CNN
F 2 "" H 6250 4300 50  0001 C CNN
F 3 "" H 6250 4300 50  0001 C CNN
	1    6250 4300
	1    0    0    -1  
$EndComp
Wire Wire Line
	7100 4300 7100 4450
Wire Wire Line
	7100 4450 7100 4600
Connection ~ 7100 4450
$Comp
L power:GND #PWR0118
U 1 1 5F0E1C60
P 7400 4450
F 0 "#PWR0118" H 7400 4200 50  0001 C CNN
F 1 "GND" V 7405 4322 50  0000 R CNN
F 2 "" H 7400 4450 50  0001 C CNN
F 3 "" H 7400 4450 50  0001 C CNN
	1    7400 4450
	0    -1   1    0   
$EndComp
$Comp
L Device:R R6
U 1 1 5F0E510E
P 6650 4300
F 0 "R6" V 6443 4300 50  0000 C CNN
F 1 "R" V 6534 4300 50  0000 C CNN
F 2 "Resistor_SMD:R_0603_1608Metric_Pad1.05x0.95mm_HandSolder" V 6580 4300 50  0001 C CNN
F 3 "~" H 6650 4300 50  0001 C CNN
	1    6650 4300
	0    1    1    0   
$EndComp
Wire Wire Line
	6250 4300 6500 4300
Wire Wire Line
	6800 4300 7100 4300
Wire Wire Line
	7250 4750 7250 4600
Wire Wire Line
	7250 4600 7100 4600
Connection ~ 7100 4600
Wire Wire Line
	7100 4600 7100 4650
Wire Wire Line
	7650 5050 8600 5050
$Comp
L Device:C C7
U 1 1 5F0EC21E
P 6600 3300
F 0 "C7" H 6485 3254 50  0000 R CNN
F 1 "C" H 6485 3345 50  0000 R CNN
F 2 "Capacitor_SMD:C_0603_1608Metric_Pad1.05x0.95mm_HandSolder" H 6638 3150 50  0001 C CNN
F 3 "~" H 6600 3300 50  0001 C CNN
	1    6600 3300
	-1   0    0    1   
$EndComp
$Comp
L Device:C C9
U 1 1 5F0EC544
P 7300 3300
F 0 "C9" H 7185 3254 50  0000 R CNN
F 1 "C" H 7185 3345 50  0000 R CNN
F 2 "Capacitor_SMD:C_0603_1608Metric_Pad1.05x0.95mm_HandSolder" H 7338 3150 50  0001 C CNN
F 3 "~" H 7300 3300 50  0001 C CNN
	1    7300 3300
	-1   0    0    1   
$EndComp
$Comp
L Device:C C12
U 1 1 5F0ECA98
P 7850 3300
F 0 "C12" H 7735 3254 50  0000 R CNN
F 1 "C" H 7735 3345 50  0000 R CNN
F 2 "Capacitor_SMD:C_0603_1608Metric_Pad1.05x0.95mm_HandSolder" H 7888 3150 50  0001 C CNN
F 3 "~" H 7850 3300 50  0001 C CNN
	1    7850 3300
	-1   0    0    1   
$EndComp
$Comp
L Device:C C13
U 1 1 5F0ECD5B
P 8400 3300
F 0 "C13" H 8285 3254 50  0000 R CNN
F 1 "C" H 8285 3345 50  0000 R CNN
F 2 "Capacitor_SMD:C_0603_1608Metric_Pad1.05x0.95mm_HandSolder" H 8438 3150 50  0001 C CNN
F 3 "~" H 8400 3300 50  0001 C CNN
	1    8400 3300
	-1   0    0    1   
$EndComp
Wire Wire Line
	8400 3450 7850 3450
Connection ~ 7850 3450
Wire Wire Line
	7850 3450 7600 3450
Wire Wire Line
	6350 3000 6600 3000
$Comp
L pspice:INDUCTOR L1
U 1 1 5F0EF03C
P 7000 3000
F 0 "L1" H 7000 3215 50  0000 C CNN
F 1 "INDUCTOR" H 7000 3124 50  0000 C CNN
F 2 "Resistor_SMD:R_0603_1608Metric_Pad1.05x0.95mm_HandSolder" H 7000 3000 50  0001 C CNN
F 3 "~" H 7000 3000 50  0001 C CNN
	1    7000 3000
	-1   0    0    -1  
$EndComp
$Comp
L pspice:INDUCTOR L2
U 1 1 5F0EF3CD
P 7550 3000
F 0 "L2" H 7550 3215 50  0000 C CNN
F 1 "INDUCTOR" H 7550 3124 50  0000 C CNN
F 2 "Resistor_SMD:R_0603_1608Metric_Pad1.05x0.95mm_HandSolder" H 7550 3000 50  0001 C CNN
F 3 "~" H 7550 3000 50  0001 C CNN
	1    7550 3000
	1    0    0    -1  
$EndComp
Wire Wire Line
	7250 3000 7300 3000
Wire Wire Line
	7850 3150 7850 3000
Wire Wire Line
	7850 3000 7900 3000
Wire Wire Line
	7300 3150 7300 3000
Wire Wire Line
	6600 3150 6600 3000
Connection ~ 6600 3000
Wire Wire Line
	6600 3000 6750 3000
Wire Wire Line
	8400 3000 8400 3150
Text Label 8500 3000 0    50   ~ 0
IF_filtre
Wire Wire Line
	5950 3000 6050 3000
Wire Wire Line
	6600 3450 7300 3450
Connection ~ 7300 3450
Wire Wire Line
	8500 3000 8400 3000
Connection ~ 8400 3000
$Comp
L Device:R R4
U 1 1 5F121A5B
P 5750 5050
F 0 "R4" V 5543 5050 50  0000 C CNN
F 1 "100R" V 5634 5050 50  0000 C CNN
F 2 "Resistor_SMD:R_0603_1608Metric_Pad1.05x0.95mm_HandSolder" V 5680 5050 50  0001 C CNN
F 3 "~" H 5750 5050 50  0001 C CNN
	1    5750 5050
	-1   0    0    1   
$EndComp
$Comp
L Device:R R5
U 1 1 5F123629
P 6100 5050
F 0 "R5" V 5893 5050 50  0000 C CNN
F 1 "100R" V 5984 5050 50  0000 C CNN
F 2 "Resistor_SMD:R_0603_1608Metric_Pad1.05x0.95mm_HandSolder" V 6030 5050 50  0001 C CNN
F 3 "~" H 6100 5050 50  0001 C CNN
	1    6100 5050
	-1   0    0    1   
$EndComp
Wire Wire Line
	5750 4900 6100 4900
Wire Wire Line
	6100 4900 6400 4900
Connection ~ 6100 4900
Wire Wire Line
	6100 5200 5900 5200
$Comp
L power:GND #PWR0119
U 1 1 5F1267A8
P 5900 5200
F 0 "#PWR0119" H 5900 4950 50  0001 C CNN
F 1 "GND" H 5905 5027 50  0000 C CNN
F 2 "" H 5900 5200 50  0001 C CNN
F 3 "" H 5900 5200 50  0001 C CNN
	1    5900 5200
	1    0    0    -1  
$EndComp
Connection ~ 5900 5200
Wire Wire Line
	5900 5200 5750 5200
$Comp
L Connector_Generic:Conn_01x02 J4
U 1 1 5F0A688F
P 8800 5050
F 0 "J4" H 8718 5267 50  0000 C CNN
F 1 "Conn_01x02" H 8718 5176 50  0000 C CNN
F 2 "Connector_PinSocket_2.54mm:PinSocket_1x02_P2.54mm_Vertical" H 8800 5050 50  0001 C CNN
F 3 "~" H 8800 5050 50  0001 C CNN
	1    8800 5050
	1    0    0    -1  
$EndComp
$Comp
L power:GND #PWR0120
U 1 1 5F0A7BEC
P 8600 5150
F 0 "#PWR0120" H 8600 4900 50  0001 C CNN
F 1 "GND" H 8605 4977 50  0000 C CNN
F 2 "" H 8600 5150 50  0001 C CNN
F 3 "" H 8600 5150 50  0001 C CNN
	1    8600 5150
	1    0    0    -1  
$EndComp
$Comp
L power:GND #PWR0121
U 1 1 5F0C3805
P 7600 3450
F 0 "#PWR0121" H 7600 3200 50  0001 C CNN
F 1 "GND" H 7605 3277 50  0000 C CNN
F 2 "" H 7600 3450 50  0001 C CNN
F 3 "" H 7600 3450 50  0001 C CNN
	1    7600 3450
	1    0    0    -1  
$EndComp
Connection ~ 7600 3450
Wire Wire Line
	7600 3450 7300 3450
$Comp
L pspice:INDUCTOR L3
U 1 1 5F0C4946
P 8150 3000
F 0 "L3" H 8150 3215 50  0000 C CNN
F 1 "INDUCTOR" H 8150 3124 50  0000 C CNN
F 2 "Resistor_SMD:R_0603_1608Metric_Pad1.05x0.95mm_HandSolder" H 8150 3000 50  0001 C CNN
F 3 "~" H 8150 3000 50  0001 C CNN
	1    8150 3000
	1    0    0    -1  
$EndComp
Connection ~ 7300 3000
Wire Wire Line
	7800 3000 7850 3000
Connection ~ 7850 3000
$EndSCHEMATC
